10001-10001-500
10002-10001-500
10003-10001-500
10004-10001-500
10005-10001-500
10006-10001-500
10007-10001-500
10008-10001-500
10009-10001-500
10010-10001-500
10011-10001-500
10012-10001-500
10013-10001-500
10014-10001-500
10015-10001-500
10001-10002-500
10002-10002-500
10003-10002-500
10004-10002-500
10005-10002-500
10006-10002-500
10007-10002-500
10008-10002-500
10009-10002-500
10010-10002-500
10011-10002-500
10012-10002-500
10013-10002-500
10014-10002-500
10015-10002-500
10001-10003-500
10002-10003-500
10003-10003-500
10004-10003-500
10005-10003-500
10006-10003-500
10007-10003-500
10008-10003-500
10009-10003-500
10010-10003-500
10011-10003-500
10012-10003-500
10013-10003-500
10014-10003-500
10015-10003-500
10001-10004-500
10002-10004-500
10003-10004-500
10004-10004-500
10005-10004-500
10006-10004-500
10007-10004-500
10008-10004-500
10009-10004-500
10010-10004-500
10011-10004-500
10012-10004-500
10013-10004-500
10014-10004-500
10015-10004-500
